individual2
…
    dat %>%
      filter(!happy %in% c("Not applicable", "Don't know", "No answer") & marital != "No answer" & !party %in% c("No answer", "Don't know")) %>%
      group_by(marital, party) %>%
      summarize(perc_happy = sum(happy %in% c("Pretty happy", "Very happy")) / length(happy))

## `summarise()` regrouping output by 'marital' (override with `.groups` argument)

## # A tibble: 40 x 3
## # Groups:   marital [5]
##    marital  party              perc_happy
##    <chr>    <chr>                   <dbl>
##  1 Divorced Ind,near dem            0.801
##  2 Divorced Ind,near rep            0.847
##  3 Divorced Independent             0.789
##  4 Divorced Not str democrat        0.799
##  5 Divorced Not str republican      0.845
##  6 Divorced Other party             0.762
##  7 Divorced Strong democrat         0.789
##  8 Divorced Strong republican       0.850
##  9 Married  Ind,near dem            0.908
## 10 Married  Ind,near rep            0.933
## # ... with 30 more rows
…
